{
  "customers": [
    {
      "id": "a69bf41410e3d710438b10be6010659d",
      "firstName": "Juliana111dfdfgd",
      "lastName": "Dooley",
      "email": "Laverne.Connelly75@hotmail.com",
      "staticIpAddress": "240.227.9.37"
    },
    {
      "id": "2a103b12109b781049c410a22b109532",
      "firstName": "Max",
      "lastName": "Price",
      "email": "Dedrick.Hyatt@hotmail.com",
      "staticIpAddress": ""
    },
    {
      "id": "11c45a861084ef1049ad108779105d0a",
      "firstName": "Duane",
      "lastName": "Morar",
      "email": "Ebba83@hotmail.com",
      "staticIpAddress": ""
    },
    {
      "id": "60d8b0f210a2dd104ed910b36e101841",
      "firstName": "Jillian",
      "lastName": "Carter",
      "email": "Sydnee48@gmail.com",
      "staticIpAddress": ""
    },
    {
      "id": "c59862a31069d31046c3108f5f1001c5",
      "firstName": "Alexandre",
      "lastName": "Wisozk",
      "email": "Celestino45@hotmail.com",
      "staticIpAddress": ""
    },
    {
      "id": "d5d984db108e2810448510a951108ae4",
      "firstName": "Reece",
      "lastName": "Christiansen",
      "email": "Eugene29@hotmail.com",
      "staticIpAddress": ""
    },
    {
      "id": "055f066f10c11210491210ac6a103c86",
      "firstName": "Eldridge",
      "lastName": "Beatty",
      "email": "Godfrey.Bashirian@hotmail.com",
      "staticIpAddress": ""
    },
    {
      "id": "c435dc16105b8e10405910a4d710c0ee",
      "firstName": "Ronaldo",
      "lastName": "Kerluke",
      "email": "Melyna.Boyle74@gmail.com",
      "staticIpAddress": ""
    },
    {
      "id": "2a6ab19110dfe6104bbd108b5c107b1c",
      "firstName": "Caden",
      "lastName": "Johnston",
      "email": "Keara.Walsh@yahoo.com",
      "staticIpAddress": ""
    },
    {
      "id": "33484d051058b9104bae10aded107ee8",
      "firstName": "Judson",
      "lastName": "Crona",
      "email": "Breanna4@yahoo.com",
      "staticIpAddress": ""
    },
    {
      "id": "f7a8a577102a6c10485f109ab1107b44",
      "firstName": "Tomas",
      "lastName": "Boyer",
      "email": "Leonie32@yahoo.com",
      "staticIpAddress": ""
    },
    {
      "id": "83c0def210ab6010476710b08c10901f",
      "firstName": "Ryley",
      "lastName": "Kuhlman",
      "email": "Viviane.Marquardt@gmail.com",
      "staticIpAddress": ""
    },
    {
      "id": "4b090d05100f2310498010bdc510ae3d",
      "firstName": "Dante",
      "lastName": "Stark",
      "email": "Matilda53@hotmail.com",
      "staticIpAddress": ""
    },
    {
      "id": "790bbe4b10ce8b10487810acc210a123",
      "firstName": "Yasmeen",
      "lastName": "Bernhard",
      "email": "Osborne_Morar@gmail.com",
      "staticIpAddress": ""
    },
    {
      "id": "c0ddf8481009bc1041d910b60b103915",
      "firstName": "Marielle",
      "lastName": "Marks",
      "email": "Nella57@hotmail.com",
      "staticIpAddress": ""
    },
    {
      "id": "afd201dd10b39a104a9010bf6710423e",
      "firstName": "Zaria",
      "lastName": "Murphy",
      "email": "Bettye69@gmail.com",
      "staticIpAddress": ""
    },
    {
      "id": "2043ecb01029cf10412a1084e910f6cf",
      "firstName": "Deangelo",
      "lastName": "Breitenberg",
      "email": "Aracely32@gmail.com",
      "staticIpAddress": ""
    },
    {
      "id": "0644edd4100c02104bea10926a106a43",
      "firstName": "Ephraim",
      "lastName": "Schneider",
      "email": "Raoul.Stamm@hotmail.com",
      "staticIpAddress": ""
    },
    {
      "id": "94de16cf10cda11041df10ba4610a92c",
      "firstName": "Fanny",
      "lastName": "Beer",
      "email": "Kristofer49@hotmail.com",
      "staticIpAddress": ""
    },
    {
      "id": "5aaf1f38100d6d1048ad10855a10296e",
      "firstName": "Emerald",
      "lastName": "Prohaska",
      "email": "Elisabeth_Murphy@yahoo.com",
      "staticIpAddress": ""
    },
    {
      "firstName": "Test",
      "lastName": "123",
      "id": "GaSjqLx"
    },
    {
      "firstName": "aa",
      "lastName": "bb",
      "email": "tetrg",
      "id": "uQ7u9TM"
    }
  ],
  "products": [
    {
      "id": "066e262610cd7610480310b026104b8d",
      "name": "Handmade Granite Chips",
      "description": "Rem vero nihil est autem fugit ab maiores. Voluptatem quis omnis consectetur. Voluptate iusto enim libero iure. Suscipit et sed ipsam sequi occaecati non praesentium magnam sit. Animi qui sit est tempora doloribus et."
    },
    {
      "id": "a42fe1fa10d1a2104dcc10bc6f1034a5",
      "name": "Handmade Frozen Computer",
      "description": "Voluptatem aut cumque reprehenderit. Minus sequi deserunt."
    },
    {
      "id": "a70d4a571024f6104760108024109ad9",
      "name": "Practical Rubber Sausages",
      "description": "Ea maiores repellat nobis est quod perferendis ullam. Velit exercitationem qui aut. Quibusdam dignissimos id quos ullam illo ut. Nisi maxime nobis quisquam debitis ducimus qui sit. Quasi ipsum molestiae quia ut."
    },
    {
      "id": "64c09fae10720f104a89109de710c919",
      "name": "Tasty Steel Salad",
      "description": "Hic unde ut deserunt facilis adipisci. Occaecati voluptatibus enim sed suscipit cupiditate. Nemo ipsum earum placeat. Quod itaque nisi aut voluptas libero numquam rerum quas. Aspernatur perferendis quibusdam nihil voluptatum perferendis ducimus. Eum nulla at quia laborum itaque commodi ut."
    },
    {
      "id": "a851ca9a10a78210471110a4a51095a9",
      "name": "Gorgeous Metal Soap",
      "description": "Et commodi nemo et illum magni consequatur minima. Aliquid accusantium architecto tempora quidem aut. Voluptates id et itaque rem maiores omnis dolor commodi. Et tempora debitis ad praesentium quidem."
    },
    {
      "id": "dece6a78103949104b6a10b29d1043c3",
      "name": "Awesome Concrete Chair",
      "description": "Numquam quidem soluta ut esse eaque non. Aliquid et itaque qui qui. Aut fugiat eligendi dolores modi corrupti."
    },
    {
      "id": "63030f0d102d9d1044fb10b2e5104e1d",
      "name": "Unbranded Fresh Pants",
      "description": "Vel aspernatur voluptatem. Atque rerum occaecati. Voluptate est assumenda. Et a repellendus a accusamus."
    },
    {
      "id": "ddc72c9010760610423710b83910f293",
      "name": "Ergonomic Soft Car",
      "description": "Accusamus ut assumenda minima beatae culpa voluptatibus. Non error voluptate molestiae incidunt provident reprehenderit iure eum repudiandae. Temporibus aliquam qui non laborum illo a minus. Ea temporibus quis. Corporis rerum nam qui optio omnis est."
    },
    {
      "id": "e2485ded10b0f2104e51109d3610afc8",
      "name": "Sleek Cotton Keyboard",
      "description": "Voluptatem non laborum repellendus sapiente repellat vitae repudiandae aliquid est. Molestiae maiores quo."
    }
  ],
  "orders": [
    {
      "staticIpAddress": "133.229.102.159",
      "isActivated": true,
      "customer": {
        "id": "a69bf41410e3d710438b10be6010659d",
        "firstName": "Juliana",
        "lastName": "Dooley",
        "email": "Laverne.Connelly75@hotmail.com",
        "staticIpAddress": "133.229.102.159"
      },
      "product": {
        "id": "a42fe1fa10d1a2104dcc10bc6f1034a5",
        "name": "Handmade Frozen Computer",
        "description": "Voluptatem aut cumque reprehenderit. Minus sequi deserunt."
      },
      "id": 1
    },
    {
      "staticIpAddress": "132.87.111.221",
      "isActivated": true,
      "customer": {
        "id": "2a103b12109b781049c410a22b109532",
        "firstName": "Max",
        "lastName": "Price",
        "email": "Dedrick.Hyatt@hotmail.com",
        "staticIpAddress": "132.87.111.221"
      },
      "product": {
        "id": "a42fe1fa10d1a2104dcc10bc6f1034a5",
        "name": "Handmade Frozen Computer",
        "description": "Voluptatem aut cumque reprehenderit. Minus sequi deserunt."
      },
      "id": 2
    },
    {
      "staticIpAddress": "240.227.9.37",
      "isActivated": true,
      "customer": {
        "id": "a69bf41410e3d710438b10be6010659d",
        "firstName": "Juliana",
        "lastName": "Dooley",
        "email": "Laverne.Connelly75@hotmail.com",
        "staticIpAddress": "240.227.9.37"
      },
      "product": {
        "id": "066e262610cd7610480310b026104b8d",
        "name": "Handmade Granite Chips",
        "description": "Rem vero nihil est autem fugit ab maiores. Voluptatem quis omnis consectetur. Voluptate iusto enim libero iure. Suscipit et sed ipsam sequi occaecati non praesentium magnam sit. Animi qui sit est tempora doloribus et."
      },
      "id": 3
    }
  ]
}